<?xml version="1.0" encoding="UTF-8" standalone="no"?>
<!-- Created with Inkscape (http://www.inkscape.org/) -->

<svg
   xmlns:dc="http://purl.org/dc/elements/1.1/"
   xmlns:cc="http://creativecommons.org/ns#"
   xmlns:rdf="http://www.w3.org/1999/02/22-rdf-syntax-ns#"
   xmlns:svg="http://www.w3.org/2000/svg"
   xmlns="http://www.w3.org/2000/svg"
   xmlns:sodipodi="http://sodipodi.sourceforge.net/DTD/sodipodi-0.dtd"
   xmlns:inkscape="http://www.inkscape.org/namespaces/inkscape"
   sodipodi:docname="basic-f14.svg"
   inkscape:version="0.48+devel r10003 custom"
   sodipodi:version="0.32"
   id="svg2928"
   height="1052.3622047"
   width="744.09448819"
   version="1.1">
  <defs
     id="defs3" />
  <sodipodi:namedview
     inkscape:window-y="25"
     inkscape:window-x="491"
     inkscape:window-height="513"
     inkscape:window-width="751"
     inkscape:current-layer="layer1"
     inkscape:document-units="px"
     inkscape:cy="1062.6922"
     inkscape:cx="271.57576"
     inkscape:zoom="0.98994949"
     inkscape:pageshadow="2"
     inkscape:pageopacity="0.0"
     borderopacity="1.0"
     bordercolor="#666666"
     pagecolor="#ffffff"
     id="base"
     showgrid="false"
     inkscape:window-maximized="0" />
  <metadata
     id="metadata4">
    <rdf:RDF>
      <cc:Work
         rdf:about="">
        <dc:format>image/svg+xml</dc:format>
        <dc:type
           rdf:resource="http://purl.org/dc/dcmitype/StillImage" />
      </cc:Work>
    </rdf:RDF>
  </metadata>
  <g
     id="layer1"
     inkscape:groupmode="layer"
     inkscape:label="Layer 1">
    <path
       transform="matrix(1.362500,0.000000,0.000000,1.744680,16.79810,-4067.070)"
       style="font-size:12px;fill:#ff9900;fill-opacity:1;fill-rule:evenodd;stroke:#000000;stroke-width:0.39901099"
       d="m 70.422535,2348.0164 c 0,7.6166 -10.509748,13.791 -23.474178,13.791 -12.964431,0 -23.474179,-6.1744 -23.474179,-13.791 0,-7.6166 10.509748,-13.7911 23.474179,-13.7911 12.96443,0 23.474178,6.1745 23.474178,13.7911 z"
       id="path1127" />
    <path
       transform="matrix(1.000000,0.000000,0.000000,1.051282,31.76290,-2451.914)"
       style="font-size:12px;fill:#ff9900;fill-opacity:1;fill-rule:evenodd;stroke:#000000;stroke-width:0.60000002"
       d="m 100.93896,2351.2441 c 0,9.7234 -11.429345,17.6057 -25.528163,17.6057 -14.098818,0 -25.528168,-7.8823 -25.528168,-17.6057 0,-9.7233 11.42935,-17.6056 25.528168,-17.6056 14.098818,0 25.528163,7.8823 25.528163,17.6056 z"
       id="path1128" />
    <path
       transform="matrix(1.000000,0.000000,0.000000,1.051282,34.11030,-2439.590)"
       style="font-size:12px;fill:#ff9900;fill-opacity:1;fill-rule:evenodd;stroke:#000000;stroke-width:0.60000002"
       d="m 119.71831,2349.4836 c 0,7.4546 -9.72152,13.4977 -21.713618,13.4977 -11.992098,0 -21.713613,-6.0431 -21.713613,-13.4977 0,-7.4545 9.721515,-13.4976 21.713613,-13.4976 11.992098,0 21.713618,6.0431 21.713618,13.4976 z"
       id="path1129" />
    <path
       transform="matrix(1.000000,0.000000,0.000000,1.051282,36.43560,-2449.567)"
       style="font-size:12px;fill:#ff9900;fill-opacity:1;fill-rule:evenodd;stroke:#000000;stroke-width:0.60000002"
       d="m 129.69483,2348.0164 c 0,5.3478 -5.78037,9.6831 -12.9108,9.6831 -7.13044,0 -12.9108,-4.3353 -12.9108,-9.6831 0,-5.3479 5.78036,-9.6831 12.9108,-9.6831 7.13043,0 12.9108,4.3352 12.9108,9.6831 z"
       id="path1130" />
    <path
       transform="matrix(1.000000,0.000000,0.000000,1.051282,37.63150,-2444.872)"
       style="font-size:12px;fill:#ff9900;fill-opacity:1;fill-rule:evenodd;stroke:#000000;stroke-width:0.60000002"
       d="m 142.60563,2347.1362 c 0,4.2135 -5.25487,7.6291 -11.73708,7.6291 -6.48222,0 -11.73709,-3.4156 -11.73709,-7.6291 0,-4.2134 5.25487,-7.6291 11.73709,-7.6291 6.48221,0 11.73708,3.4157 11.73708,7.6291 z"
       id="path1131" />
    <path
       transform="matrix(1.000000,0.000000,0.000000,1.051282,37.04460,-2450.214)"
       style="font-size:12px;fill:#ff9900;fill-opacity:1;fill-rule:evenodd;stroke:#000000;stroke-width:0.60000002"
       d="m 150.23474,2347.4297 c 0,3.079 -3.28429,5.5751 -7.33568,5.5751 -4.05138,0 -7.33568,-2.4961 -7.33568,-5.5751 0,-3.0791 3.2843,-5.5751 7.33568,-5.5751 4.05139,0 7.33568,2.496 7.33568,5.5751 z"
       id="path1132" />
  </g>
</svg>
