<?xml version="1.0" encoding="UTF-8" standalone="no"?>
<!-- Created with Inkscape (http://www.inkscape.org/) -->
<svg
   xmlns:dc="http://purl.org/dc/elements/1.1/"
   xmlns:cc="http://web.resource.org/cc/"
   xmlns:rdf="http://www.w3.org/1999/02/22-rdf-syntax-ns#"
   xmlns:svg="http://www.w3.org/2000/svg"
   xmlns="http://www.w3.org/2000/svg"
   xmlns:sodipodi="http://sodipodi.sourceforge.net/DTD/sodipodi-0.dtd"
   xmlns:inkscape="http://www.inkscape.org/namespaces/inkscape"
   sodipodi:docname="calligraphy-f08.svg"
   sodipodi:docbase="/home/aaron/notes/inkdoc/calligraphy"
   inkscape:version="0.41+cvs"
   sodipodi:version="0.32"
   id="svg3018"
   height="1052.3622047"
   width="744.09448819">
  <defs
     id="defs3" />
  <sodipodi:namedview
     inkscape:window-y="21"
     inkscape:window-x="4"
     inkscape:window-height="513"
     inkscape:window-width="753"
     inkscape:current-layer="layer1"
     inkscape:document-units="px"
     inkscape:cy="945.74541"
     inkscape:cx="199.96619"
     inkscape:zoom="1.4000000"
     inkscape:pageshadow="2"
     inkscape:pageopacity="0.0"
     borderopacity="1.0"
     bordercolor="#666666"
     pagecolor="#ffffff"
     id="base" />
  <metadata
     id="metadata4">
    <rdf:RDF
       id="RDF5">
      <cc:Work
         id="Work6"
         rdf:about="">
        <dc:format
           id="format7">image/svg+xml</dc:format>
        <dc:type
           rdf:resource="http://purl.org/dc/dcmitype/StillImage"
           id="type9" />
      </cc:Work>
    </rdf:RDF>
  </metadata>
  <g
     id="layer1"
     inkscape:groupmode="layer"
     inkscape:label="Layer 1">
    <path
       sodipodi:insensitive="true"
       id="path3323"
       d="M 10.512859,15.799900 L 300.81310,15.799900"
       style="fill:none;fill-opacity:0.75000000;fill-rule:evenodd;stroke:#aeaeae;stroke-width:0.59489685;stroke-linecap:butt;stroke-linejoin:miter;stroke-miterlimit:4.0000000;stroke-dasharray:0.59489660 1.7846897 ;stroke-dashoffset:0.0000000;stroke-opacity:1.0000000;display:block" />
    <path
       sodipodi:insensitive="true"
       id="path3324"
       d="M 10.512821,44.257100 L 300.81310,44.257100"
       style="fill:none;fill-opacity:0.75000000;fill-rule:evenodd;stroke:#aeaeae;stroke-width:0.59489685;stroke-linecap:butt;stroke-linejoin:miter;stroke-miterlimit:4.0000000;stroke-dasharray:0.59489660 1.7846897 ;stroke-dashoffset:0.0000000;stroke-opacity:1.0000000;display:block" />
    <path
       sodipodi:insensitive="true"
       id="path8580"
       d="M 141.27081,60.735300 L 157.46497,0.29790000"
       style="color:#000000;fill:none;fill-opacity:0.75000000;fill-rule:evenodd;stroke:#aeaeae;stroke-width:0.59489685;stroke-linecap:butt;stroke-linejoin:miter;marker:none;marker-start:none;marker-mid:none;marker-end:none;stroke-miterlimit:4.0000000;stroke-dasharray:0.59489660 1.7846897 ;stroke-dashoffset:0.0000000;stroke-opacity:1.0000000;visibility:visible;display:block" />
    <path
       sodipodi:insensitive="true"
       id="path8581"
       d="M 166.27081,60.735300 L 182.46497,0.29790000"
       style="color:#000000;fill:none;fill-opacity:0.75000000;fill-rule:evenodd;stroke:#aeaeae;stroke-width:0.59489685;stroke-linecap:butt;stroke-linejoin:miter;marker:none;marker-start:none;marker-mid:none;marker-end:none;stroke-miterlimit:4.0000000;stroke-dasharray:0.59489660 1.7846897 ;stroke-dashoffset:0.0000000;stroke-opacity:1.0000000;visibility:visible;display:block" />
    <path
       sodipodi:insensitive="true"
       id="path8582"
       d="M 191.27081,60.735300 L 207.46497,0.29790000"
       style="color:#000000;fill:none;fill-opacity:0.75000000;fill-rule:evenodd;stroke:#aeaeae;stroke-width:0.59489685;stroke-linecap:butt;stroke-linejoin:miter;marker:none;marker-start:none;marker-mid:none;marker-end:none;stroke-miterlimit:4.0000000;stroke-dasharray:0.59489660 1.7846897 ;stroke-dashoffset:0.0000000;stroke-opacity:1.0000000;visibility:visible;display:block" />
    <path
       sodipodi:insensitive="true"
       id="path8583"
       d="M 216.27081,60.735300 L 232.46497,0.29790000"
       style="color:#000000;fill:none;fill-opacity:0.75000000;fill-rule:evenodd;stroke:#aeaeae;stroke-width:0.59489685;stroke-linecap:butt;stroke-linejoin:miter;marker:none;marker-start:none;marker-mid:none;marker-end:none;stroke-miterlimit:4.0000000;stroke-dasharray:0.59489660 1.7846897 ;stroke-dashoffset:0.0000000;stroke-opacity:1.0000000;visibility:visible;display:block" />
    <path
       sodipodi:insensitive="true"
       id="path8584"
       d="M 241.27081,60.735300 L 257.46497,0.29790000"
       style="color:#000000;fill:none;fill-opacity:0.75000000;fill-rule:evenodd;stroke:#aeaeae;stroke-width:0.59489685;stroke-linecap:butt;stroke-linejoin:miter;marker:none;marker-start:none;marker-mid:none;marker-end:none;stroke-miterlimit:4.0000000;stroke-dasharray:0.59489660 1.7846897 ;stroke-dashoffset:0.0000000;stroke-opacity:1.0000000;visibility:visible;display:block" />
    <path
       sodipodi:insensitive="true"
       id="path8585"
       d="M 266.27081,60.735300 L 282.46497,0.29790000"
       style="color:#000000;fill:none;fill-opacity:0.75000000;fill-rule:evenodd;stroke:#aeaeae;stroke-width:0.59489685;stroke-linecap:butt;stroke-linejoin:miter;marker:none;marker-start:none;marker-mid:none;marker-end:none;stroke-miterlimit:4.0000000;stroke-dasharray:0.59489660 1.7846897 ;stroke-dashoffset:0.0000000;stroke-opacity:1.0000000;visibility:visible;display:block" />
  </g>
</svg>
